\relax 
\citation{ryan-2001}
\citation{hillesund-2010}
\citation{pugh-1978}
\citation{nicholas-2009}
\citation{pugh-1978}
\@writefile{toc}{\contentsline {section}{\numberline {1}Introduction}{\thepage }}
\@writefile{toc}{\contentsline {section}{\numberline {2}Related Work}{\thepage }}
\newlabel{sec:background}{{2}{\thepage }}
\citation{pettifer-2011}
\bibstyle{abbrv}
\bibdata{reading-habits}
\@writefile{lof}{\contentsline {figure}{\numberline {1}{\ignorespaces Frequency of participant responses for layout and display options they would ideally like for reading academic documents digitally. }}{\thepage }}
\newlabel{fig:layout-options}{{1}{\thepage }}
\@writefile{lof}{\contentsline {figure}{\numberline {2}{\ignorespaces Frequency of coded participant suggestions for how they would ideally like an academic document arranged on a digital device. }}{\thepage }}
\newlabel{fig:layout-suggestions}{{2}{\thepage }}
\@writefile{toc}{\contentsline {section}{\numberline {3}Survey Design}{\thepage }}
\@writefile{toc}{\contentsline {section}{\numberline {4}Results \& Discussion}{\thepage }}
\@writefile{toc}{\contentsline {section}{\numberline {5}Conclusions}{\thepage }}
\newlabel{sec:conclusions}{{5}{\thepage }}
