\relax 
\citation{marshall-2005}
\citation{pettifer-2011}
\@writefile{toc}{\contentsline {section}{\numberline {1}Introduction}{\thepage }}
\@writefile{toc}{\contentsline {section}{\numberline {2}Device Usage}{\thepage }}
\newlabel{sec:results}{{2}{\thepage }}
\citation{aaltonen-2011}
\bibstyle{abbrv}
\bibdata{reading-habits}
\@writefile{lof}{\contentsline {figure}{\numberline {1}{\ignorespaces Frequency of device use for reading academic papers (left), and number of times the device was preferred (i.e., most frequently used) by a participant (right). Key: Print (Pr); Desktop (DT); eReader (ER); Tablet (Tb); Smartphone (SP). Note that Smartphones were never preferred and respondents could choose more than one preferred device. }}{\thepage }}
\newlabel{fig:device-usage}{{1}{\thepage }}
\@writefile{lof}{\contentsline {figure}{\numberline {2}{\ignorespaces Frequency of different device use and number of times the device was preferred, i.e., usage was Most often, broken down by age, field of study and gender.}}{\thepage }}
\newlabel{fig:device-usage-breakdown}{{2}{\thepage }}
\@writefile{toc}{\contentsline {section}{\numberline {3}Conclusions}{\thepage }}
